module gitlab.com/isqad/eventbus

go 1.12

require (
	github.com/streadway/amqp v0.0.0-20190404075320-75d898a42a94
	go.uber.org/atomic v1.3.2 // indirect
	go.uber.org/multierr v1.1.0 // indirect
	go.uber.org/zap v1.10.0
)
